.......
----------------------------------------------------------------------
Ran 10 tests in 0.001s

OK
Name               Stmts   Miss  Cover   Missing
------------------------------------------------
Diplomacy.py         100      0   100%
TestDiplomacy.py      53      0   100%
------------------------------------------------
TOTAL                153      0   100%